{
    "commun": {
        "statut": "OK",
        "raison": null,
        "action": null,
        "origine": "cbo"
    },
    "donnees": [
        {
            "id": "100",
            "libelle": "Vie quotidienne",
            "ordreAffichage": 0,
            "parent": null,
            "sousCategories": [
                {
                    "id": "101",
                    "libelle": "Aide à domicile",
                    "ordreAffichage": 0,
                    "parent": null,
                    "sousCategories": []
                },
                {
                    "id": "102",
                    "libelle": "Alimentation",
                    "ordreAffichage": 0,
                    "parent": null,
                    "sousCategories": []
                },
                {
                    "id": "103",
                    "libelle": "Cadeaux",
                    "ordreAffichage": 0,
                    "parent": null,
                    "sousCategories": []
                },
                {
                    "id": "104",
                    "libelle": "Chèques",
                    "ordreAffichage": 0,
                    "parent": null,
                    "sousCategories": []
                },
                {
                    "id": "105",
                    "libelle": "Crédit",
                    "ordreAffichage": 0,
                    "parent": null,
                    "sousCategories": []
                },
                {
                    "id": "106",
                    "libelle": "Frais de garde",
                    "ordreAffichage": 0,
                    "parent": null,
                    "sousCategories": []
                },
                {
                    "id": "107",
                    "libelle": "Habillement",
                    "ordreAffichage": 0,
                    "parent": null,
                    "sousCategories": []
                },
                {
                    "id": "108",
                    "libelle": "Hypermarchés",
                    "ordreAffichage": 0,
                    "parent": null,
                    "sousCategories": []
                },
                {
                    "id": "109",
                    "libelle": "Pension",
                    "ordreAffichage": 0,
                    "parent": null,
                    "sousCategories": []
                },
                {
                    "id": "110",
                    "libelle": "Retrait DAB",
                    "ordreAffichage": 0,
                    "parent": null,
                    "sousCategories": []
                },
                {
                    "id": "111",
                    "libelle": "Scolarité",
                    "ordreAffichage": 0,
                    "parent": null,
                    "sousCategories": []
                },
                {
                    "id": "112",
                    "libelle": "Soins - Beauté",
                    "ordreAffichage": 0,
                    "parent": null,
                    "sousCategories": []
                },
                {
                    "id": "113",
                    "libelle": "Votre banque",
                    "ordreAffichage": 0,
                    "parent": null,
                    "sousCategories": []
                },
                {
                    "id": "114",
                    "libelle": "Divers",
                    "ordreAffichage": 0,
                    "parent": null,
                    "sousCategories": []
                }
            ]
        },
        {
            "id": "200",
            "libelle": "Habitation",
            "ordreAffichage": 0,
            "parent": null,
            "sousCategories": [
                {
                    "id": "201",
                    "libelle": "Assurance",
                    "ordreAffichage": 0,
                    "parent": null,
                    "sousCategories": []
                },
                {
                    "id": "202",
                    "libelle": "Bricolage",
                    "ordreAffichage": 0,
                    "parent": null,
                    "sousCategories": []
                },
                {
                    "id": "203",
                    "libelle": "Eau",
                    "ordreAffichage": 0,
                    "parent": null,
                    "sousCategories": []
                },
                {
                    "id": "204",
                    "libelle": "Electricité",
                    "ordreAffichage": 0,
                    "parent": null,
                    "sousCategories": []
                },
                {
                    "id": "205",
                    "libelle": "Electroménager - High Tech",
                    "ordreAffichage": 0,
                    "parent": null,
                    "sousCategories": []
                },
                {
                    "id": "206",
                    "libelle": "Fioul - Gaz",
                    "ordreAffichage": 0,
                    "parent": null,
                    "sousCategories": []
                },
                {
                    "id": "207",
                    "libelle": "Internet - Téléphone fixe",
                    "ordreAffichage": 0,
                    "parent": null,
                    "sousCategories": []
                },
                {
                    "id": "208",
                    "libelle": "Loyer - Prêt immobilier",
                    "ordreAffichage": 0,
                    "parent": null,
                    "sousCategories": []
                },
                {
                    "id": "209",
                    "libelle": "Meubles - Décoration",
                    "ordreAffichage": 0,
                    "parent": null,
                    "sousCategories": []
                },
                {
                    "id": "210",
                    "libelle": "Portable",
                    "ordreAffichage": 0,
                    "parent": null,
                    "sousCategories": []
                },
                {
                    "id": "211",
                    "libelle": "Télévision",
                    "ordreAffichage": 0,
                    "parent": null,
                    "sousCategories": []
                },
                {
                    "id": "212",
                    "libelle": "Divers",
                    "ordreAffichage": 0,
                    "parent": null,
                    "sousCategories": []
                }
            ]
        },
        {
            "id": "300",
            "libelle": "Santé",
            "ordreAffichage": 0,
            "parent": null,
            "sousCategories": [
                {
                    "id": "301",
                    "libelle": "Dentaire",
                    "ordreAffichage": 0,
                    "parent": null,
                    "sousCategories": []
                },
                {
                    "id": "302",
                    "libelle": "Hôpital",
                    "ordreAffichage": 0,
                    "parent": null,
                    "sousCategories": []
                },
                {
                    "id": "303",
                    "libelle": "Laboratoires",
                    "ordreAffichage": 0,
                    "parent": null,
                    "sousCategories": []
                },
                {
                    "id": "304",
                    "libelle": "Médecins",
                    "ordreAffichage": 0,
                    "parent": null,
                    "sousCategories": []
                },
                {
                    "id": "305",
                    "libelle": "Mutuelle",
                    "ordreAffichage": 0,
                    "parent": null,
                    "sousCategories": []
                },
                {
                    "id": "306",
                    "libelle": "Optique",
                    "ordreAffichage": 0,
                    "parent": null,
                    "sousCategories": []
                },
                {
                    "id": "307",
                    "libelle": "Pharmacie",
                    "ordreAffichage": 0,
                    "parent": null,
                    "sousCategories": []
                },
                {
                    "id": "308",
                    "libelle": "Remboursements",
                    "ordreAffichage": 0,
                    "parent": null,
                    "sousCategories": []
                },
                {
                    "id": "309",
                    "libelle": "Divers",
                    "ordreAffichage": 0,
                    "parent": null,
                    "sousCategories": []
                }
            ]
        },
        {
            "id": "400",
            "libelle": "Transport",
            "ordreAffichage": 0,
            "parent": null,
            "sousCategories": [
                {
                    "id": "401",
                    "libelle": "Assurance",
                    "ordreAffichage": 0,
                    "parent": null,
                    "sousCategories": []
                },
                {
                    "id": "402",
                    "libelle": "Billets",
                    "ordreAffichage": 0,
                    "parent": null,
                    "sousCategories": []
                },
                {
                    "id": "403",
                    "libelle": "Carburant",
                    "ordreAffichage": 0,
                    "parent": null,
                    "sousCategories": []
                },
                {
                    "id": "404",
                    "libelle": "Commun",
                    "ordreAffichage": 0,
                    "parent": null,
                    "sousCategories": []
                },
                {
                    "id": "405",
                    "libelle": "Crédit",
                    "ordreAffichage": 0,
                    "parent": null,
                    "sousCategories": []
                },
                {
                    "id": "406",
                    "libelle": "Entretien",
                    "ordreAffichage": 0,
                    "parent": null,
                    "sousCategories": []
                },
                {
                    "id": "407",
                    "libelle": "Parking",
                    "ordreAffichage": 0,
                    "parent": null,
                    "sousCategories": []
                },
                {
                    "id": "408",
                    "libelle": "Péages",
                    "ordreAffichage": 0,
                    "parent": null,
                    "sousCategories": []
                },
                {
                    "id": "409",
                    "libelle": "PV - Contraventions",
                    "ordreAffichage": 0,
                    "parent": null,
                    "sousCategories": []
                },
                {
                    "id": "410",
                    "libelle": "Taxi - Location",
                    "ordreAffichage": 0,
                    "parent": null,
                    "sousCategories": []
                },
                {
                    "id": "411",
                    "libelle": "Divers",
                    "ordreAffichage": 0,
                    "parent": null,
                    "sousCategories": []
                }
            ]
        },
        {
            "id": "500",
            "libelle": "Impôts & Solidarité",
            "ordreAffichage": 0,
            "parent": null,
            "sousCategories": [
                {
                    "id": "501",
                    "libelle": "Dons",
                    "ordreAffichage": 0,
                    "parent": null,
                    "sousCategories": []
                },
                {
                    "id": "502",
                    "libelle": "ISF",
                    "ordreAffichage": 0,
                    "parent": null,
                    "sousCategories": []
                },
                {
                    "id": "503",
                    "libelle": "Sur le revenu",
                    "ordreAffichage": 0,
                    "parent": null,
                    "sousCategories": []
                },
                {
                    "id": "504",
                    "libelle": "Taxes d'habitation",
                    "ordreAffichage": 0,
                    "parent": null,
                    "sousCategories": []
                },
                {
                    "id": "505",
                    "libelle": "Taxes foncières",
                    "ordreAffichage": 0,
                    "parent": null,
                    "sousCategories": []
                },
                {
                    "id": "506",
                    "libelle": "Divers",
                    "ordreAffichage": 0,
                    "parent": null,
                    "sousCategories": []
                }
            ]
        },
        {
            "id": "600",
            "libelle": "Epargne & Patrimoine",
            "ordreAffichage": 0,
            "parent": null,
            "sousCategories": [
                {
                    "id": "601",
                    "libelle": "Assurance",
                    "ordreAffichage": 0,
                    "parent": null,
                    "sousCategories": []
                },
                {
                    "id": "602",
                    "libelle": "Epargne bancaire",
                    "ordreAffichage": 0,
                    "parent": null,
                    "sousCategories": []
                },
                {
                    "id": "603",
                    "libelle": "Epargne financière",
                    "ordreAffichage": 0,
                    "parent": null,
                    "sousCategories": []
                },
                {
                    "id": "604",
                    "libelle": "Immobilier - Foncier",
                    "ordreAffichage": 0,
                    "parent": null,
                    "sousCategories": []
                },
                {
                    "id": "605",
                    "libelle": "Investissement",
                    "ordreAffichage": 0,
                    "parent": null,
                    "sousCategories": []
                },
                {
                    "id": "606",
                    "libelle": "Divers",
                    "ordreAffichage": 0,
                    "parent": null,
                    "sousCategories": []
                }
            ]
        },
        {
            "id": "700",
            "libelle": "Loisirs",
            "ordreAffichage": 0,
            "parent": null,
            "sousCategories": [
                {
                    "id": "701",
                    "libelle": "Culture",
                    "ordreAffichage": 0,
                    "parent": null,
                    "sousCategories": []
                },
                {
                    "id": "702",
                    "libelle": "Hobby",
                    "ordreAffichage": 0,
                    "parent": null,
                    "sousCategories": []
                },
                {
                    "id": "703",
                    "libelle": "Jeux",
                    "ordreAffichage": 0,
                    "parent": null,
                    "sousCategories": []
                },
                {
                    "id": "704",
                    "libelle": "Presse",
                    "ordreAffichage": 0,
                    "parent": null,
                    "sousCategories": []
                },
                {
                    "id": "705",
                    "libelle": "Restaurants - Sorties",
                    "ordreAffichage": 0,
                    "parent": null,
                    "sousCategories": []
                },
                {
                    "id": "706",
                    "libelle": "Sport",
                    "ordreAffichage": 0,
                    "parent": null,
                    "sousCategories": []
                },
                {
                    "id": "707",
                    "libelle": "Week-end - Vacances",
                    "ordreAffichage": 0,
                    "parent": null,
                    "sousCategories": []
                },
                {
                    "id": "708",
                    "libelle": "Divers",
                    "ordreAffichage": 0,
                    "parent": null,
                    "sousCategories": []
                }
            ]
        },
        {
            "id": "800",
            "libelle": "Animaux",
            "ordreAffichage": 0,
            "parent": null,
            "sousCategories": [
                {
                    "id": "801",
                    "libelle": "Alimentation",
                    "ordreAffichage": 0,
                    "parent": null,
                    "sousCategories": []
                },
                {
                    "id": "802",
                    "libelle": "Frais de garde",
                    "ordreAffichage": 0,
                    "parent": null,
                    "sousCategories": []
                },
                {
                    "id": "803",
                    "libelle": "Hygiène - Beauté",
                    "ordreAffichage": 0,
                    "parent": null,
                    "sousCategories": []
                },
                {
                    "id": "804",
                    "libelle": "Santé",
                    "ordreAffichage": 0,
                    "parent": null,
                    "sousCategories": []
                },
                {
                    "id": "805",
                    "libelle": "Divers",
                    "ordreAffichage": 0,
                    "parent": null,
                    "sousCategories": []
                }
            ]
        },
        {
            "id": "900",
            "libelle": "Traitements & Salaires",
            "ordreAffichage": 0,
            "parent": null,
            "sousCategories": [
                {
                    "id": "901",
                    "libelle": "Allocations chômage - RSA",
                    "ordreAffichage": 0,
                    "parent": null,
                    "sousCategories": []
                },
                {
                    "id": "902",
                    "libelle": "Allocations familiales",
                    "ordreAffichage": 0,
                    "parent": null,
                    "sousCategories": []
                },
                {
                    "id": "903",
                    "libelle": "Allocations logement",
                    "ordreAffichage": 0,
                    "parent": null,
                    "sousCategories": []
                },
                {
                    "id": "904",
                    "libelle": "Allocations scolaires",
                    "ordreAffichage": 0,
                    "parent": null,
                    "sousCategories": []
                },
                {
                    "id": "905",
                    "libelle": "Primes - Avantages",
                    "ordreAffichage": 0,
                    "parent": null,
                    "sousCategories": []
                },
                {
                    "id": "906",
                    "libelle": "Rémunération",
                    "ordreAffichage": 0,
                    "parent": null,
                    "sousCategories": []
                },
                {
                    "id": "907",
                    "libelle": "Divers",
                    "ordreAffichage": 0,
                    "parent": null,
                    "sousCategories": []
                }
            ]
        },
        {
            "id": "1000",
            "libelle": "Autre",
            "ordreAffichage": 0,
            "parent": null,
            "sousCategories": [
                {
                    "id": "1001",
                    "libelle": "Divers",
                    "ordreAffichage": 0,
                    "parent": null,
                    "sousCategories": []
                }
            ]
        },
        {
            "id": "1100",
            "libelle": "Hors budget",
            "ordreAffichage": 0,
            "parent": null,
            "sousCategories": [
                {
                    "id": "1101",
                    "libelle": "Divers",
                    "ordreAffichage": 0,
                    "parent": null,
                    "sousCategories": []
                }
            ]
        },
        {
            "id": "1200",
            "libelle": "Non classé",
            "ordreAffichage": 0,
            "parent": null,
            "sousCategories": [
                {
                    "id": "1201",
                    "libelle": "Divers",
                    "ordreAffichage": 0,
                    "parent": null,
                    "sousCategories": []
                }
            ]
        }
    ],
    "caract": {
        "chiffrement": false,
        "compression": false,
        "must_recheck": 0,
        "delai_val": 0,
        "id_cle": null
    }
}