{
    "commun": {
        "statut": "OK",
        "raison": null,
        "action": null,
        "origine": "cbo"
    },
    "donnees": {
        "recapitulatifCompte": {
            "soldeComptable": 554.85,
            "encours": 1000.00,
            "soldeTotal": 1554.85,
            "dateSoldeComptable": "20180828",
            "numeroCompte": "02500 00050313049",
            "prestationTechniqueId": "NCppJlTFv_qDDYBFKF0yHvkkIAo=",
            "client": {
                "nomUsage": "",
                "prenom": "",
                "nomPatronymique": "",
                "civiliteLabel": ""
            },
            "soldeFuture": -152,
            "soldeOperationsRecherchees": null,
            "devise": "EUR",
            "chargerPlusOperations": true,
            "prestationLibelle": "Compte Bancaire"
        },
        "listeOperations": [
            {
                "idOpe": null,
                "libOpe": "",
                "dateChargement": null,
                "dateOpe": 1535666400000,
                "mnt": 1000.00,
                "mntEDD": null,
                "libPrest": null,
                "cat": {
                    "id": "3000",
                    "lib": "Non classé",
                    "picto": null,
                    "ssCat": null
                },
                "ssCat": null,
                "enabled": false,
                "topPointe": false,
                "listeOpeFilles": [],
                "statutOperation": "INTRADAY",
                "operationCategorisable": null,
                "prestationIdAssocie": "30003000000025000005031304900050",
                "categorisable": false,
                "topSplit": false
            },
            {
                "idOpe": "2752254/27122017/NCppJlTFv_qDDYBFKF0yHvkkIAo=",
                "libOpe": "FRAIS REJET CHQ SANS PROVISION REF REJET DU CHQ 1990016 DE 5 060,10 EUR DU 18/07/11",
                "dateChargement": 1311199200000,
                "dateOpe": 1514329200000,
                "mnt": 1142.30,
                "mntEDD": {
                    "posDecimale": 2,
                    "devise": "EUR",
                    "label": null,
                    "valeur": -114230
                },
                "libPrest": "Compte Bancaire 02500 00050313049",
                "cat": {
                    "id": "2000",
                    "lib": "Habitation",
                    "picto": null,
                    "ssCat": null
                },
                "ssCat": null,
                "enabled": true,
                "topPointe": false,
                "listeOpeFilles": [
                    {
                        "idOpe": "2752254/361/27122017/NCppJlTFv_qDDYBFKF0yHvkkIAo=",
                        "libOpe": "FRAIS REJET CHQ SANS PROVISION REF REJET DU CHQ 1990016 DE 5 060,10 EUR DU 18/07/11",
                        "dateChargement": 1459375200000,
                        "dateOpe": 1514329200000,
                        "mnt": 1000.00,
                        "mntEDD": {
                            "posDecimale": 2,
                            "devise": "EUR",
                            "label": null,
                            "valeur": -100000
                        },
                        "libPrest": "Compte Bancaire 02500 00050313049",
                        "cat": {
                            "id": "200",
                            "lib": "Eau",
                            "picto": null,
                            "ssCat": null
                        },
                        "ssCat": {
                            "id": "203",
                            "lib": "Habitation",
                            "picto": null,
                            "ssCat": null
                        },
                        "enabled": true,
                        "topPointe": true,
                        "listeOpeFilles": [],
                        "statutOperation": "COMPTABILISE",
                        "operationCategorisable": "CATEGORISABLE",
                        "prestationIdAssocie": "30003000000025000005031304900050",
                        "categorisable": true,
                        "topSplit": true
                    },
                    {
                        "idOpe": "2752254/362/27122017/NCppJlTFv_qDDYBFKF0yHvkkIAo=",
                        "libOpe": "FRAIS REJET CHQ SANS PROVISION REF REJET DU CHQ 1990016 DE 5 060,10 EUR DU 18/07/11",
                        "dateChargement": 1459375200000,
                        "dateOpe": 1514329200000,
                        "mnt": 142.30,
                        "mntEDD": {
                            "posDecimale": 2,
                            "devise": "EUR",
                            "label": null,
                            "valeur": -14230
                        },
                        "libPrest": "Compte Bancaire 02500 00050313049",
                        "cat": {
                            "id": "200",
                            "lib": "Eau",
                            "picto": null,
                            "ssCat": null
                        },
                        "ssCat": {
                            "id": "203",
                            "lib": "Habitation",
                            "picto": null,
                            "ssCat": null
                        },
                        "enabled": true,
                        "topPointe": true,
                        "listeOpeFilles": [],
                        "statutOperation": "COMPTABILISE",
                        "operationCategorisable": "CATEGORISABLE",
                        "prestationIdAssocie": "30003000000025000005031304900050",
                        "categorisable": true,
                        "topSplit": true
                    }
                ],
                "statutOperation": "COMPTABILISE",
                "operationCategorisable": "OPERATION_MERE",
                "prestationIdAssocie": "30003000000025000005031304900050",
                "categorisable": false,
                "topSplit": false
            },
            {
                "idOpe": "2752259/27122017/NCppJlTFv_qDDYBFKF0yHvkkIAo=",
                "libOpe": "FRAIS REJET CHQ SANS PROVISION REF REJET DU CHQ 1990016 DE 5 060,10 EUR DU 18/07/11",
                "dateChargement": 1311199200000,
                "dateOpe": 1514329200000,
                "mnt": -1128.51,
                "mntEDD": {
                    "posDecimale": 2,
                    "devise": "EUR",
                    "label": null,
                    "valeur": 112851
                },
                "libPrest": "Compte Bancaire 02500 00050313049",
                "cat": {
                    "id": "300",
                    "lib": "Médecins",
                    "picto": null,
                    "ssCat": null
                },
                "ssCat": {
                    "id": "304",
                    "lib": "Santé",
                    "picto": null,
                    "ssCat": null
                },
                "enabled": true,
                "topPointe": false,
                "listeOpeFilles": [],
                "statutOperation": "COMPTABILISE",
                "operationCategorisable": "CATEGORISABLE",
                "prestationIdAssocie": "30003000000025000005031304900050",
                "categorisable": true,
                "topSplit": false
            },
            {
                "idOpe": "2752235/26122017/NCppJlTFv_qDDYBFKF0yHvkkIAo=",
                "libOpe": "FRAIS ENVOI CHEQUIER        33",
                "dateChargement": 1311199200000,
                "dateOpe": 1514242800000,
                "mnt": 193.55,
                "mntEDD": {
                    "posDecimale": 2,
                    "devise": "EUR",
                    "label": null,
                    "valeur": -19355
                },
                "libPrest": "Compte Bancaire 02500 00050313049",
                "cat": {
                    "id": "300",
                    "lib": "Mutuelle",
                    "picto": null,
                    "ssCat": null
                },
                "ssCat": {
                    "id": "305",
                    "lib": "Santé",
                    "picto": null,
                    "ssCat": null
                },
                "enabled": true,
                "topPointe": false,
                "listeOpeFilles": [],
                "statutOperation": "COMPTABILISE",
                "operationCategorisable": "CATEGORISABLE",
                "prestationIdAssocie": "30003000000025000005031304900050",
                "categorisable": true,
                "topSplit": false
            },
            {
                "idOpe": "2752236/26122017/NCppJlTFv_qDDYBFKF0yHvkkIAo=",
                "libOpe": "FAC.ETR5133",
                "dateChargement": 1311199200000,
                "dateOpe": 1514242800000,
                "mnt": 1531.23,
                "mntEDD": {
                    "posDecimale": 2,
                    "devise": "EUR",
                    "label": null,
                    "valeur": -153123
                },
                "libPrest": "Compte Bancaire 02500 00050313049",
                "cat": {
                    "id": "800",
                    "lib": "Santé",
                    "picto": null,
                    "ssCat": null
                },
                "ssCat": {
                    "id": "804",
                    "lib": "Animaux",
                    "picto": null,
                    "ssCat": null
                },
                "enabled": true,
                "topPointe": false,
                "listeOpeFilles": [],
                "statutOperation": "COMPTABILISE",
                "operationCategorisable": "CATEGORISABLE",
                "prestationIdAssocie": "30003000000025000005031304900050",
                "categorisable": true,
                "topSplit": false
            },
            {
                "idOpe": "2752237/26122017/NCppJlTFv_qDDYBFKF0yHvkkIAo=",
                "libOpe": "VIREMENT",
                "dateChargement": 1311199200000,
                "dateOpe": 1514242800000,
                "mnt": 214.76,
                "mntEDD": {
                    "posDecimale": 2,
                    "devise": "EUR",
                    "label": null,
                    "valeur": -21476
                },
                "libPrest": "Compte Bancaire 02500 00050313049",
                "cat": {
                    "id": "300",
                    "lib": "Dentaire",
                    "picto": null,
                    "ssCat": null
                },
                "ssCat": {
                    "id": "301",
                    "lib": "Santé",
                    "picto": null,
                    "ssCat": null
                },
                "enabled": true,
                "topPointe": false,
                "listeOpeFilles": [],
                "statutOperation": "COMPTABILISE",
                "operationCategorisable": "CATEGORISABLE",
                "prestationIdAssocie": "30003000000025000005031304900050",
                "categorisable": true,
                "topSplit": false
            },
            {
                "idOpe": "2752245/26122017/NCppJlTFv_qDDYBFKF0yHvkkIAo=",
                "libOpe": "FRAIS ENVOI CHEQUIER        33",
                "dateChargement": 1311199200000,
                "dateOpe": 1514242800000,
                "mnt": -1115.51,
                "mntEDD": {
                    "posDecimale": 2,
                    "devise": "EUR",
                    "label": null,
                    "valeur": 111551
                },
                "libPrest": "Compte Bancaire 02500 00050313049",
                "cat": {
                    "id": "400",
                    "lib": "Crédit",
                    "picto": null,
                    "ssCat": null
                },
                "ssCat": {
                    "id": "405",
                    "lib": "Transport",
                    "picto": null,
                    "ssCat": null
                },
                "enabled": true,
                "topPointe": false,
                "listeOpeFilles": [],
                "statutOperation": "COMPTABILISE",
                "operationCategorisable": "CATEGORISABLE",
                "prestationIdAssocie": "30003000000025000005031304900050",
                "categorisable": true,
                "topSplit": false
            },
            {
                "idOpe": "2752246/26122017/NCppJlTFv_qDDYBFKF0yHvkkIAo=",
                "libOpe": "FAC.ETR5133",
                "dateChargement": 1311199200000,
                "dateOpe": 1514242800000,
                "mnt": 1360.32,
                "mntEDD": {
                    "posDecimale": 2,
                    "devise": "EUR",
                    "label": null,
                    "valeur": -136032
                },
                "libPrest": "Compte Bancaire 02500 00050313049",
                "cat": {
                    "id": "500",
                    "lib": "ISF",
                    "picto": null,
                    "ssCat": null
                },
                "ssCat": {
                    "id": "502",
                    "lib": "Impôts & Solidarité",
                    "picto": null,
                    "ssCat": null
                },
                "enabled": true,
                "topPointe": false,
                "listeOpeFilles": [],
                "statutOperation": "COMPTABILISE",
                "operationCategorisable": "CATEGORISABLE",
                "prestationIdAssocie": "30003000000025000005031304900050",
                "categorisable": true,
                "topSplit": false
            },
            {
                "idOpe": "2752247/26122017/NCppJlTFv_qDDYBFKF0yHvkkIAo=",
                "libOpe": "VIREMENT",
                "dateChargement": 1311199200000,
                "dateOpe": 1514242800000,
                "mnt": -816.62,
                "mntEDD": {
                    "posDecimale": 2,
                    "devise": "EUR",
                    "label": null,
                    "valeur": 81662
                },
                "libPrest": "Compte Bancaire 02500 00050313049",
                "cat": {
                    "id": "300",
                    "lib": "Laboratoires",
                    "picto": null,
                    "ssCat": null
                },
                "ssCat": {
                    "id": "303",
                    "lib": "Santé",
                    "picto": null,
                    "ssCat": null
                },
                "enabled": true,
                "topPointe": false,
                "listeOpeFilles": [],
                "statutOperation": "COMPTABILISE",
                "operationCategorisable": "CATEGORISABLE",
                "prestationIdAssocie": "30003000000025000005031304900050",
                "categorisable": true,
                "topSplit": false
            },
            {
                "idOpe": "2752217/25122017/NCppJlTFv_qDDYBFKF0yHvkkIAo=",
                "libOpe": "PRELEVEMENT1072896826 BBB ENTREPRISEB 10700008744 04 080100 686777",
                "dateChargement": 1311199200000,
                "dateOpe": 1514156400000,
                "mnt": -1455.78,
                "mntEDD": {
                    "posDecimale": 2,
                    "devise": "EUR",
                    "label": null,
                    "valeur": 145578
                },
                "libPrest": "Compte Bancaire 02500 00050313049",
                "cat": {
                    "id": "400",
                    "lib": "Billets",
                    "picto": null,
                    "ssCat": null
                },
                "ssCat": {
                    "id": "402",
                    "lib": "Transport",
                    "picto": null,
                    "ssCat": null
                },
                "enabled": true,
                "topPointe": false,
                "listeOpeFilles": [],
                "statutOperation": "COMPTABILISE",
                "operationCategorisable": "CATEGORISABLE",
                "prestationIdAssocie": "30003000000025000005031304900050",
                "categorisable": true,
                "topSplit": false
            },
            {
                "idOpe": "2752218/25122017/NCppJlTFv_qDDYBFKF0yHvkkIAo=",
                "libOpe": "PRELEVEMENT EUROPEEN 2100000215 POUR CPTE DE:UltimateCreditor ID: FR60MPV100004 MOTIF: Remittance Information",
                "dateChargement": 1311199200000,
                "dateOpe": 1514156400000,
                "mnt": -14.32,
                "mntEDD": {
                    "posDecimale": 2,
                    "devise": "EUR",
                    "label": null,
                    "valeur": 1432
                },
                "libPrest": "Compte Bancaire 02500 00050313049",
                "cat": {
                    "id": "400",
                    "lib": "PV - Contraventions",
                    "picto": null,
                    "ssCat": null
                },
                "ssCat": {
                    "id": "409",
                    "lib": "Transport",
                    "picto": null,
                    "ssCat": null
                },
                "enabled": true,
                "topPointe": false,
                "listeOpeFilles": [],
                "statutOperation": "COMPTABILISE",
                "operationCategorisable": "CATEGORISABLE",
                "prestationIdAssocie": "30003000000025000005031304900050",
                "categorisable": true,
                "topSplit": false
            },
            {
                "idOpe": "2752219/25122017/NCppJlTFv_qDDYBFKF0yHvkkIAo=",
                "libOpe": "6543210000004",
                "dateChargement": 1311199200000,
                "dateOpe": 1514156400000,
                "mnt": 1633.70,
                "mntEDD": {
                    "posDecimale": 2,
                    "devise": "EUR",
                    "label": null,
                    "valeur": -163370
                },
                "libPrest": "Compte Bancaire 02500 00050313049",
                "cat": {
                    "id": "100",
                    "lib": "Aide à domicile",
                    "picto": null,
                    "ssCat": null
                },
                "ssCat": {
                    "id": "101",
                    "lib": "Vie quotidienne",
                    "picto": null,
                    "ssCat": null
                },
                "enabled": true,
                "topPointe": false,
                "listeOpeFilles": [],
                "statutOperation": "COMPTABILISE",
                "operationCategorisable": "CATEGORISABLE",
                "prestationIdAssocie": "30003000000025000005031304900050",
                "categorisable": true,
                "topSplit": false
            },
            {
                "idOpe": "2752227/25122017/NCppJlTFv_qDDYBFKF0yHvkkIAo=",
                "libOpe": "PRELEVEMENT1072896826 BBB ENTREPRISEB 10700008744 04 080100 686777",
                "dateChargement": 1311199200000,
                "dateOpe": 1514156400000,
                "mnt": 1601.41,
                "mntEDD": {
                    "posDecimale": 2,
                    "devise": "EUR",
                    "label": null,
                    "valeur": -160141
                },
                "libPrest": "Compte Bancaire 02500 00050313049",
                "cat": {
                    "id": "200",
                    "lib": "Eau",
                    "picto": null,
                    "ssCat": null
                },
                "ssCat": {
                    "id": "203",
                    "lib": "Habitation",
                    "picto": null,
                    "ssCat": null
                },
                "enabled": true,
                "topPointe": false,
                "listeOpeFilles": [],
                "statutOperation": "COMPTABILISE",
                "operationCategorisable": "CATEGORISABLE",
                "prestationIdAssocie": "30003000000025000005031304900050",
                "categorisable": true,
                "topSplit": false
            },
            {
                "idOpe": "2752228/25122017/NCppJlTFv_qDDYBFKF0yHvkkIAo=",
                "libOpe": "PRELEVEMENT EUROPEEN 2100000215 POUR CPTE DE:UltimateCreditor ID: FR60MPV100004 MOTIF: Remittance Information",
                "dateChargement": 1311199200000,
                "dateOpe": 1514156400000,
                "mnt": 1346.65,
                "mntEDD": {
                    "posDecimale": 2,
                    "devise": "EUR",
                    "label": null,
                    "valeur": -134665
                },
                "libPrest": "Compte Bancaire 02500 00050313049",
                "cat": {
                    "id": "400",
                    "lib": "PV - Contraventions",
                    "picto": null,
                    "ssCat": null
                },
                "ssCat": {
                    "id": "409",
                    "lib": "Transport",
                    "picto": null,
                    "ssCat": null
                },
                "enabled": true,
                "topPointe": false,
                "listeOpeFilles": [],
                "statutOperation": "COMPTABILISE",
                "operationCategorisable": "CATEGORISABLE",
                "prestationIdAssocie": "30003000000025000005031304900050",
                "categorisable": true,
                "topSplit": false
            },
            {
                "idOpe": "2752229/25122017/NCppJlTFv_qDDYBFKF0yHvkkIAo=",
                "libOpe": "6543210000004",
                "dateChargement": 1311199200000,
                "dateOpe": 1514156400000,
                "mnt": -1500.41,
                "mntEDD": {
                    "posDecimale": 2,
                    "devise": "EUR",
                    "label": null,
                    "valeur": 150041
                },
                "libPrest": "Compte Bancaire 02500 00050313049",
                "cat": {
                    "id": "300",
                    "lib": "Dentaire",
                    "picto": null,
                    "ssCat": null
                },
                "ssCat": {
                    "id": "301",
                    "lib": "Santé",
                    "picto": null,
                    "ssCat": null
                },
                "enabled": true,
                "topPointe": false,
                "listeOpeFilles": [],
                "statutOperation": "COMPTABILISE",
                "operationCategorisable": "CATEGORISABLE",
                "prestationIdAssocie": "30003000000025000005031304900050",
                "categorisable": true,
                "topSplit": false
            },
            {
                "idOpe": "2752198/24122017/NCppJlTFv_qDDYBFKF0yHvkkIAo=",
                "libOpe": "VIREMENT",
                "dateChargement": 1311199200000,
                "dateOpe": 1514070000000,
                "mnt": -1017.49,
                "mntEDD": {
                    "posDecimale": 2,
                    "devise": "EUR",
                    "label": null,
                    "valeur": 101749
                },
                "libPrest": "Compte Bancaire 02500 00050313049",
                "cat": {
                    "id": "400",
                    "lib": "Assurance",
                    "picto": null,
                    "ssCat": null
                },
                "ssCat": {
                    "id": "401",
                    "lib": "Transport",
                    "picto": null,
                    "ssCat": null
                },
                "enabled": true,
                "topPointe": false,
                "listeOpeFilles": [],
                "statutOperation": "COMPTABILISE",
                "operationCategorisable": "CATEGORISABLE",
                "prestationIdAssocie": "30003000000025000005031304900050",
                "categorisable": true,
                "topSplit": false
            },
            {
                "idOpe": "2752205/24122017/NCppJlTFv_qDDYBFKF0yHvkkIAo=",
                "libOpe": "VIREMENT",
                "dateChargement": 1311199200000,
                "dateOpe": 1514070000000,
                "mnt": 881.26,
                "mntEDD": {
                    "posDecimale": 2,
                    "devise": "EUR",
                    "label": null,
                    "valeur": -88126
                },
                "libPrest": "Compte Bancaire 02500 00050313049",
                "cat": {
                    "id": "400",
                    "lib": "Assurance",
                    "picto": null,
                    "ssCat": null
                },
                "ssCat": {
                    "id": "401",
                    "lib": "Transport",
                    "picto": null,
                    "ssCat": null
                },
                "enabled": true,
                "topPointe": false,
                "listeOpeFilles": [],
                "statutOperation": "COMPTABILISE",
                "operationCategorisable": "CATEGORISABLE",
                "prestationIdAssocie": "30003000000025000005031304900050",
                "categorisable": true,
                "topSplit": false
            },
            {
                "idOpe": "2752189/23122017/NCppJlTFv_qDDYBFKF0yHvkkIAo=",
                "libOpe": "VIREMENT",
                "dateChargement": 1311199200000,
                "dateOpe": 1513983600000,
                "mnt": -156.67,
                "mntEDD": {
                    "posDecimale": 2,
                    "devise": "EUR",
                    "label": null,
                    "valeur": 15667
                },
                "libPrest": "Compte Bancaire 02500 00050313049",
                "cat": {
                    "id": "1100",
                    "lib": "Divers",
                    "picto": null,
                    "ssCat": null
                },
                "ssCat": {
                    "id": "1101",
                    "lib": "Hors budget",
                    "picto": null,
                    "ssCat": null
                },
                "enabled": true,
                "topPointe": false,
                "listeOpeFilles": [],
                "statutOperation": "COMPTABILISE",
                "operationCategorisable": "CATEGORISABLE",
                "prestationIdAssocie": "30003000000025000005031304900050",
                "categorisable": true,
                "topSplit": false
            },
            {
                "idOpe": "2752190/23122017/NCppJlTFv_qDDYBFKF0yHvkkIAo=",
                "libOpe": "FRAIS REJET CHQ SANS PROVISION REF REJET DU CHQ 1990013 DE 5 030,10 EUR DU 18/07/11",
                "dateChargement": 1311199200000,
                "dateOpe": 1513983600000,
                "mnt": -968.11,
                "mntEDD": {
                    "posDecimale": 2,
                    "devise": "EUR",
                    "label": null,
                    "valeur": 96811
                },
                "libPrest": "Compte Bancaire 02500 00050313049",
                "cat": {
                    "id": "600",
                    "lib": "Epargne financière",
                    "picto": null,
                    "ssCat": null
                },
                "ssCat": {
                    "id": "603",
                    "lib": "Epargne & Patrimoine",
                    "picto": null,
                    "ssCat": null
                },
                "enabled": true,
                "topPointe": false,
                "listeOpeFilles": [],
                "statutOperation": "COMPTABILISE",
                "operationCategorisable": "CATEGORISABLE",
                "prestationIdAssocie": "30003000000025000005031304900050",
                "categorisable": true,
                "topSplit": false
            },
            {
                "idOpe": "2752191/23122017/NCppJlTFv_qDDYBFKF0yHvkkIAo=",
                "libOpe": "VIREMENT RESERVE CREDIT",
                "dateChargement": 1311199200000,
                "dateOpe": 1513983600000,
                "mnt": -1659.83,
                "mntEDD": {
                    "posDecimale": 2,
                    "devise": "EUR",
                    "label": null,
                    "valeur": 165983
                },
                "libPrest": "Compte Bancaire 02500 00050313049",
                "cat": {
                    "id": "1100",
                    "lib": "Divers",
                    "picto": null,
                    "ssCat": null
                },
                "ssCat": {
                    "id": "1101",
                    "lib": "Hors budget",
                    "picto": null,
                    "ssCat": null
                },
                "enabled": true,
                "topPointe": false,
                "listeOpeFilles": [],
                "statutOperation": "COMPTABILISE",
                "operationCategorisable": "CATEGORISABLE",
                "prestationIdAssocie": "30003000000025000005031304900050",
                "categorisable": true,
                "topSplit": false
            },
            {
                "idOpe": "2752195/23122017/NCppJlTFv_qDDYBFKF0yHvkkIAo=",
                "libOpe": "VIREMENT",
                "dateChargement": 1311199200000,
                "dateOpe": 1513983600000,
                "mnt": 229.09,
                "mntEDD": {
                    "posDecimale": 2,
                    "devise": "EUR",
                    "label": null,
                    "valeur": -22909
                },
                "libPrest": "Compte Bancaire 02500 00050313049",
                "cat": {
                    "id": "900",
                    "lib": "Primes - Avantages",
                    "picto": null,
                    "ssCat": null
                },
                "ssCat": {
                    "id": "905",
                    "lib": "Traitements & Salaires",
                    "picto": null,
                    "ssCat": null
                },
                "enabled": true,
                "topPointe": false,
                "listeOpeFilles": [],
                "statutOperation": "COMPTABILISE",
                "operationCategorisable": "CATEGORISABLE",
                "prestationIdAssocie": "30003000000025000005031304900050",
                "categorisable": true,
                "topSplit": false
            },
            {
                "idOpe": "2752196/23122017/NCppJlTFv_qDDYBFKF0yHvkkIAo=",
                "libOpe": "FRAIS REJET CHQ SANS PROVISION REF REJET DU CHQ 1990013 DE 5 030,10 EUR DU 18/07/11",
                "dateChargement": 1311199200000,
                "dateOpe": 1513983600000,
                "mnt": 78.54,
                "mntEDD": {
                    "posDecimale": 2,
                    "devise": "EUR",
                    "label": null,
                    "valeur": -7854
                },
                "libPrest": "Compte Bancaire 02500 00050313049",
                "cat": {
                    "id": "900",
                    "lib": "Primes - Avantages",
                    "picto": null,
                    "ssCat": null
                },
                "ssCat": {
                    "id": "905",
                    "lib": "Traitements & Salaires",
                    "picto": null,
                    "ssCat": null
                },
                "enabled": true,
                "topPointe": false,
                "listeOpeFilles": [],
                "statutOperation": "COMPTABILISE",
                "operationCategorisable": "CATEGORISABLE",
                "prestationIdAssocie": "30003000000025000005031304900050",
                "categorisable": true,
                "topSplit": false
            },
            {
                "idOpe": "2752197/23122017/NCppJlTFv_qDDYBFKF0yHvkkIAo=",
                "libOpe": "VIREMENT RESERVE CREDIT",
                "dateChargement": 1311199200000,
                "dateOpe": 1513983600000,
                "mnt": -1776.96,
                "mntEDD": {
                    "posDecimale": 2,
                    "devise": "EUR",
                    "label": null,
                    "valeur": 177696
                },
                "libPrest": "Compte Bancaire 02500 00050313049",
                "cat": {
                    "id": "900",
                    "lib": "Primes - Avantages",
                    "picto": null,
                    "ssCat": null
                },
                "ssCat": {
                    "id": "905",
                    "lib": "Traitements & Salaires",
                    "picto": null,
                    "ssCat": null
                },
                "enabled": true,
                "topPointe": false,
                "listeOpeFilles": [],
                "statutOperation": "COMPTABILISE",
                "operationCategorisable": "CATEGORISABLE",
                "prestationIdAssocie": "30003000000025000005031304900050",
                "categorisable": true,
                "topSplit": false
            }
        ],
        "listeOperationsFutures": [
            {
                "idOpe": "2752255/28122017/NCppJlTFv_qDDYBFKF0yHvkkGAo=",
                "cat": {
                    "id": "200",
                    "lib": "Eau",
                    "picto": null,
                    "ssCat": null
                },
                "ssCat": {
                    "id": "203",
                    "lib": "Habitation",
                    "picto": null,
                    "ssCat": null
                },
                "dateEcheance": "2018-09-03",
                "codeOperation": "676",
                "montant": {
                    "codeDevise": {
                        "code": "EUR"
                    },
                    "codeDecimalisation": 2,
                    "valeurMontant": -15200,
                    "value": "-152.00"
                },
                "libelle": "VIR PERM",
                "libelleOrigine": null,
                "libelleComplementaire1": "VIR PERM 1000000408533",
                "libelleComplementaire2": "MOTIF: fdsg",
                "libelleComplementaire3": "",
                "operationCategorisable": "FUTURE",
                "categorisable": true,
                "prestationIdAssocie": "30003000000025000005003114600050",
                "numeroCompteFormate": null,
                "labelNumeroCompte": null,
                "operationsFilles": [],
                "libelleAAfficher": "VIR PERM VIR PERM 1000000408533 MOTIF: fdsg"
            }
        ],
        "operationsFuturesChargees": true,
        "groupeProduit": "COMPTE_A_VUE",
        "produit": "COMPTE_COURANT",
        "releveEnLigne": true,
        "etatPrestation": "AFFICHE"
    },
    "caract": {
        "chiffrement": false,
        "compression": false,
        "must_recheck": 0,
        "delai_val": 0,
        "id_cle": null
    }
}