{
    "commun": {
        "statut": "OK",
        "raison": null,
        "action": null,
        "origine": "cbo"
    },
    "donnees": {
        "recapitulatifCompte": {
            "soldeComptable": 554.85,
            "encours": 0.00,
            "soldeTotal": 554.85,
            "dateSoldeComptable": "20180822",
            "numeroCompte": "02500 00050313049",
            "prestationTechniqueId": "NCppJlTFv_qDDYBFKF0yHvkkIAo=",
            "client": {
                "nomUsage": "",
                "prenom": "",
                "nomPatronymique": "",
                "civiliteLabel": ""
            },
            "soldeFuture": 0,
            "soldeOperationsRecherchees": -527.77,
            "devise": "EUR",
            "chargerPlusOperations": true,
            "prestationLibelle": "Compte Bancaire"
        },
        "listeOperations": [
            {
                "idOpe": "2752167/22122017/NCppJlTFv_qDDYBFKF0yHvkkIAo=",
                "libOpe": "PRELEVEMENT1032895876 AAA LOCABAIL EX LO 2634063A011001AA00888338 REMISE DU 040100 ECH DU 150100",
                "dateChargement": 1311199200000,
                "dateOpe": 1513897200000,
                "mnt": -445.79,
                "mntEDD": {
                    "posDecimale": 2,
                    "devise": "EUR",
                    "label": null,
                    "valeur": 44579
                },
                "libPrest": "Compte Bancaire 02500 00050313049",
                "cat": {
                    "id": "500",
                    "lib": "Sur le revenu",
                    "picto": null,
                    "ssCat": null
                },
                "ssCat": {
                    "id": "503",
                    "lib": "Impôts & Solidarité",
                    "picto": null,
                    "ssCat": null
                },
                "enabled": true,
                "topPointe": false,
                "listeOpeFilles": [],
                "statutOperation": "COMPTABILISE",
                "operationCategorisable": "CATEGORISABLE",
                "prestationIdAssocie": "30003000000025000005031304900050",
                "categorisable": true,
                "topSplit": false
            },
            {
                "idOpe": "2752181/22122017/NCppJlTFv_qDDYBFKF0yHvkkIAo=",
                "libOpe": "PRELEVEMENT1032895876 AAA LOCABAIL EX LO 2634063A011001AA00888338 REMISE DU 040100 ECH DU 150100",
                "dateChargement": 1311199200000,
                "dateOpe": 1513897200000,
                "mnt": -1236.52,
                "mntEDD": {
                    "posDecimale": 2,
                    "devise": "EUR",
                    "label": null,
                    "valeur": 123652
                },
                "libPrest": "Compte Bancaire 02500 00050313049",
                "cat": {
                    "id": "300",
                    "lib": "Optique",
                    "picto": null,
                    "ssCat": null
                },
                "ssCat": {
                    "id": "306",
                    "lib": "Santé",
                    "picto": null,
                    "ssCat": null
                },
                "enabled": true,
                "topPointe": false,
                "listeOpeFilles": [],
                "statutOperation": "COMPTABILISE",
                "operationCategorisable": "CATEGORISABLE",
                "prestationIdAssocie": "30003000000025000005031304900050",
                "categorisable": true,
                "topSplit": false
            },
            {
                "idOpe": "2731293/22112017/NCppJlTFv_qDDYBFKF0yHvkkIAo=",
                "libOpe": "PRELEVEMENT1032895876 AAA LOCABAIL EX LO 2634063A011001AA00888338 REMISE DU 040100 ECH DU 150100",
                "dateChargement": 1311199200000,
                "dateOpe": 1511305200000,
                "mnt": 692.60,
                "mntEDD": {
                    "posDecimale": 2,
                    "devise": "EUR",
                    "label": null,
                    "valeur": -69260
                },
                "libPrest": "Compte Bancaire 02500 00050313049",
                "cat": {
                    "id": "500",
                    "lib": "Sur le revenu",
                    "picto": null,
                    "ssCat": null
                },
                "ssCat": {
                    "id": "503",
                    "lib": "Impôts & Solidarité",
                    "picto": null,
                    "ssCat": null
                },
                "enabled": true,
                "topPointe": false,
                "listeOpeFilles": [],
                "statutOperation": "COMPTABILISE",
                "operationCategorisable": "CATEGORISABLE",
                "prestationIdAssocie": "30003000000025000005031304900050",
                "categorisable": true,
                "topSplit": false
            },
            {
                "idOpe": "2731307/22112017/NCppJlTFv_qDDYBFKF0yHvkkIAo=",
                "libOpe": "PRELEVEMENT1032895876 AAA LOCABAIL EX LO 2634063A011001AA00888338 REMISE DU 040100 ECH DU 150100",
                "dateChargement": 1311199200000,
                "dateOpe": 1511305200000,
                "mnt": 1467.86,
                "mntEDD": {
                    "posDecimale": 2,
                    "devise": "EUR",
                    "label": null,
                    "valeur": -146786
                },
                "libPrest": "Compte Bancaire 02500 00050313049",
                "cat": {
                    "id": "500",
                    "lib": "Sur le revenu",
                    "picto": null,
                    "ssCat": null
                },
                "ssCat": {
                    "id": "503",
                    "lib": "Impôts & Solidarité",
                    "picto": null,
                    "ssCat": null
                },
                "enabled": true,
                "topPointe": false,
                "listeOpeFilles": [],
                "statutOperation": "COMPTABILISE",
                "operationCategorisable": "CATEGORISABLE",
                "prestationIdAssocie": "30003000000025000005031304900050",
                "categorisable": true,
                "topSplit": false
            },
            {
                "idOpe": "2710419/22102017/NCppJlTFv_qDDYBFKF0yHvkkIAo=",
                "libOpe": "PRELEVEMENT1032895876 AAA LOCABAIL EX LO 2634063A011001AA00888338 REMISE DU 040100 ECH DU 150100",
                "dateChargement": 1311199200000,
                "dateOpe": 1508623200000,
                "mnt": 477.62,
                "mntEDD": {
                    "posDecimale": 2,
                    "devise": "EUR",
                    "label": null,
                    "valeur": -47762
                },
                "libPrest": "Compte Bancaire 02500 00050313049",
                "cat": {
                    "id": "500",
                    "lib": "Sur le revenu",
                    "picto": null,
                    "ssCat": null
                },
                "ssCat": {
                    "id": "503",
                    "lib": "Impôts & Solidarité",
                    "picto": null,
                    "ssCat": null
                },
                "enabled": true,
                "topPointe": false,
                "listeOpeFilles": [],
                "statutOperation": "COMPTABILISE",
                "operationCategorisable": "CATEGORISABLE",
                "prestationIdAssocie": "30003000000025000005031304900050",
                "categorisable": true,
                "topSplit": false
            },
            {
                "idOpe": "2710433/22102017/NCppJlTFv_qDDYBFKF0yHvkkIAo=",
                "libOpe": "PRELEVEMENT1032895876 AAA LOCABAIL EX LO 2634063A011001AA00888338 REMISE DU 040100 ECH DU 150100",
                "dateChargement": 1311199200000,
                "dateOpe": 1508623200000,
                "mnt": -1582.57,
                "mntEDD": {
                    "posDecimale": 2,
                    "devise": "EUR",
                    "label": null,
                    "valeur": 158257
                },
                "libPrest": "Compte Bancaire 02500 00050313049",
                "cat": {
                    "id": "500",
                    "lib": "Sur le revenu",
                    "picto": null,
                    "ssCat": null
                },
                "ssCat": {
                    "id": "503",
                    "lib": "Impôts & Solidarité",
                    "picto": null,
                    "ssCat": null
                },
                "enabled": true,
                "topPointe": false,
                "listeOpeFilles": [],
                "statutOperation": "COMPTABILISE",
                "operationCategorisable": "CATEGORISABLE",
                "prestationIdAssocie": "30003000000025000005031304900050",
                "categorisable": true,
                "topSplit": false
            },
            {
                "idOpe": "2689545/22092017/NCppJlTFv_qDDYBFKF0yHvkkIAo=",
                "libOpe": "PRELEVEMENT1032895876 AAA LOCABAIL EX LO 2634063A011001AA00888338 REMISE DU 040100 ECH DU 150100",
                "dateChargement": 1311199200000,
                "dateOpe": 1506031200000,
                "mnt": 889.85,
                "mntEDD": {
                    "posDecimale": 2,
                    "devise": "EUR",
                    "label": null,
                    "valeur": -88985
                },
                "libPrest": "Compte Bancaire 02500 00050313049",
                "cat": {
                    "id": "500",
                    "lib": "Sur le revenu",
                    "picto": null,
                    "ssCat": null
                },
                "ssCat": {
                    "id": "503",
                    "lib": "Impôts & Solidarité",
                    "picto": null,
                    "ssCat": null
                },
                "enabled": true,
                "topPointe": false,
                "listeOpeFilles": [],
                "statutOperation": "COMPTABILISE",
                "operationCategorisable": "CATEGORISABLE",
                "prestationIdAssocie": "30003000000025000005031304900050",
                "categorisable": true,
                "topSplit": false
            },
            {
                "idOpe": "2689559/22092017/NCppJlTFv_qDDYBFKF0yHvkkIAo=",
                "libOpe": "PRELEVEMENT1032895876 AAA LOCABAIL EX LO 2634063A011001AA00888338 REMISE DU 040100 ECH DU 150100",
                "dateChargement": 1311199200000,
                "dateOpe": 1506031200000,
                "mnt": -790.82,
                "mntEDD": {
                    "posDecimale": 2,
                    "devise": "EUR",
                    "label": null,
                    "valeur": 79082
                },
                "libPrest": "Compte Bancaire 02500 00050313049",
                "cat": {
                    "id": "500",
                    "lib": "Sur le revenu",
                    "picto": null,
                    "ssCat": null
                },
                "ssCat": {
                    "id": "503",
                    "lib": "Impôts & Solidarité",
                    "picto": null,
                    "ssCat": null
                },
                "enabled": true,
                "topPointe": false,
                "listeOpeFilles": [],
                "statutOperation": "COMPTABILISE",
                "operationCategorisable": "CATEGORISABLE",
                "prestationIdAssocie": "30003000000025000005031304900050",
                "categorisable": true,
                "topSplit": false
            }
        ],
        "listeOperationsFutures": [],
        "operationsFuturesChargees": true,
        "groupeProduit": "COMPTE_A_VUE",
        "produit": "COMPTE_COURANT",
        "releveEnLigne": true,
        "etatPrestation": "AFFICHE"
    },
    "caract": {
        "chiffrement": false,
        "compression": false,
        "must_recheck": 0,
        "delai_val": 0,
        "id_cle": null
    }
}