{
    "commun": {
        "statut": "OK",
        "raison": null,
        "action": null,
        "origine": "cbo"
    },
    "donnees": 0,
    "caract": {
        "chiffrement": false,
        "compression": false,
        "must_recheck": 0,
        "delai_val": 0,
        "id_cle": null
    }
}